1:
3.77971003558
3.37971003558
3.68671003558
4.80371003558
3.79071003558
3.99471003558
3.47871003558
3.78971003558
4.12371003558
3.61071003558
3.05771003558
3.68071003558
4.06471003558
4.08771003558
2.87271003558
4.03471003558
3.67671003558
4.60071003558
4.22271003558
4.27271003558
3.16671003558
5.14571003558
3.61571003558
10:
2.98571003558
2.73171003558
1000:
3.27671003558
2.96771003558
2.67971003558
4.67971003558
3.80671003558
3.43671003558
3.30471003558
3.96671003558
3.02571003558
2.53771003558
3.32171003558
3.56871003558
3.27671003558
4.36371003558
3.95471003558
3.07471003558
3.04071003558
3.06771003558
3.22971003558
3.67971003558
3.41271003558
3.95371003558
2.41471003558
3.08671003558
4.09371003558
3.12771003558
3.65171003558
10000:
3.70371003558
3.55771003558
10001:
3.49171003558
4.38871003558
3.80571003558
2.79271003558
4.41371003558
3.51871003558
3.53671003558
4.07471003558
4.02571003558
3.62671003558
4.21671003558
4.23171003558
2.99971003558
4.26771003558
3.70471003558
3.55571003558
4.46771003558
10002:
4.34471003558
3.37971003558
4.79171003558
4.07471003558
10003:
2.47671003558
10004:
5.15071003558
4.17571003558
4.39571003558
3.98071003558
4.76071003558
4.40171003558
4.52871003558
4.38271003558
4.36471003558
4.30071003558
4.46471003558
4.02171003558
4.36471003558
3.94971003558
4.49371003558
4.41071003558
4.51071003558
4.50471003558
4.69571003558
4.10271003558
4.33171003558
4.09871003558
4.14271003558
4.21971003558
5.39071003558
3.90071003558
4.24071003558
4.43771003558
3.55471003558
4.88671003558
4.62871003558
10005:
3.60771003558
4.07071003558
3.29371003558
2.95271003558
3.05871003558
10006:
3.80871003558
3.23371003558
3.99671003558
2.72271003558
10007:
2.14171003558
2.74771003558
2.32071003558
2.32971003558
2.10171003558
2.58871003558
2.21471003558
2.93471003558
2.52571003558
2.84071003558
2.32471003558
2.62871003558
2.40071003558
10008:
4.74871003558
3.28571003558
3.55171003558
2.75071003558
4.27271003558
4.03371003558
4.01071003558
10009:
3.04271003558
3.45671003558
4.61571003558
2.70771003558
2.61471003558
3.35971003558
1001:
4.42671003558
3.43671003558
3.03671003558
3.18271003558
4.01871003558
4.00171003558
3.72771003558
3.43471003558
2.68071003558
3.67471003558
3.62171003558
3.86571003558
2.92571003558
3.58371003558
3.39271003558
3.29971003558
3.99871003558
3.79871003558
2.91071003558
3.13371003558
2.92671003558
3.73271003558
3.31071003558
2.75371003558
3.52171003558
3.03171003558
3.59871003558
3.62171003558
3.71271003558
4.16371003558
3.66071003558
4.71271003558
2.95271003558
3.45671003558
3.43271003558
3.45671003558
4.06971003558
2.71271003558
2.76471003558
3.71671003558
3.95871003558
3.00871003558
3.62571003558
3.99471003558
4.08571003558
3.66971003558
3.35271003558
3.13471003558
3.18471003558
4.06571003558
3.16271003558
2.33171003558
2.51271003558
3.67071003558
3.78771003558
4.15671003558
2.89271003558
3.44071003558
3.54571003558
3.14671003558
3.40971003558
3.11271003558
3.09171003558
2.93471003558
3.98971003558
2.91471003558
2.80371003558
2.97971003558
3.98571003558
3.47871003558
2.96871003558
3.13171003558
3.52371003558
2.96171003558
3.09371003558
3.72571003558
2.60771003558
2.66971003558
3.51571003558
3.52871003558
3.71271003558
3.98971003558
2.54471003558
3.61671003558
3.42471003558
3.30871003558
3.34771003558
4.05071003558
3.33171003558
2.85571003558
4.04571003558
3.47471003558
3.64071003558
3.77671003558
3.10171003558
2.71271003558
3.09171003558
3.15671003558
3.28871003558
3.42671003558
3.54571003558
3.46071003558
3.04571003558
3.00971003558
3.45071003558
3.43171003558
3.66271003558
3.74571003558
3.65071003558
2.70471003558
3.00671003558
3.34671003558
3.38171003558
2.99171003558
3.37971003558
2.67471003558
3.00571003558
3.83571003558
3.69971003558
3.04871003558
3.28371003558
3.46371003558
3.20771003558
3.46271003558
3.24271003558
3.34771003558
3.04571003558
3.80071003558
3.40671003558
3.18571003558
3.44571003558
3.72371003558
3.60171003558
3.18071003558
10010:
2.30171003558
2.09471003558
2.13571003558
2.97071003558
2.68471003558
2.26671003558
2.41271003558
2.19471003558
1.73371003558
2.53871003558
1.90571003558
1.88871003558
2.02771003558
1.72371003558
2.87471003558
2.19371003558
1.91971003558
2.65271003558
1.26471003558
2.26271003558
1.69871003558
1.86971003558
1.94771003558
10011:
4.49971003558
4.14371003558
10012:
3.12071003558
4.04171003558
2.98471003558
3.11571003558
3.71071003558
3.79071003558
2.47871003558
3.30171003558
3.00371003558
3.31571003558
3.76671003558
3.10271003558
2.97871003558
10013:
3.60371003558
3.26771003558
3.56371003558
3.71371003558
3.32371003558
3.46171003558
3.25571003558
3.59271003558
3.26071003558
3.81471003558
2.89971003558
4.01271003558
3.24771003558
3.64671003558
3.05271003558
3.24671003558
2.90271003558
3.12071003558
3.37071003558
2.82671003558
3.01571003558
2.69371003558
3.19871003558
3.63571003558
3.65071003558
3.19371003558
3.35671003558
2.58171003558
2.82571003558
3.31271003558
3.12071003558
2.77471003558
2.95071003558
3.79771003558
3.10471003558
2.96771003558
3.39271003558
3.96971003558
3.78371003558
2.75871003558
4.06271003558
3.27571003558
3.46671003558
3.36671003558
3.46271003558
2.74471003558
3.23971003558
3.44371003558
2.95271003558
3.57871003558
3.00871003558
3.12271003558
3.56271003558
3.81571003558
3.29671003558
2.66671003558
3.82171003558
10014:
3.12271003558
4.01771003558
2.60471003558
3.62971003558
3.09471003558
10015:
3.82171003558
3.30971003558
2.92571003558
3.53971003558
3.93271003558
3.52671003558
4.10071003558
3.87871003558
3.90871003558
3.38771003558
3.99971003558
3.69171003558
3.46171003558
4.14471003558
4.14471003558
3.48671003558
3.79071003558
4.18771003558
3.77371003558
4.17471003558
5.19671003558
4.16271003558
4.66371003558
2.87871003558
3.21171003558
3.34171003558
4.17371003558
3.72071003558
10016:
2.74971003558
1.94371003558
2.24371003558
2.87171003558
3.68771003558
10017:
3.09771003558
3.44271003558
3.15571003558
10018:
4.75371003558
3.90071003558
2.87371003558
3.09371003558
3.45671003558
3.79671003558
3.57871003558
3.29271003558
2.37671003558
3.97971003558
3.57771003558
3.98271003558
3.92471003558
3.80571003558
3.31171003558
3.70171003558
3.45671003558
3.64971003558
3.46171003558
3.64971003558
3.53671003558
3.23771003558
4.07071003558
4.16871003558
3.41771003558
4.00671003558
3.60271003558
3.89171003558
3.74471003558
4.12571003558
10019:
3.46871003558
3.12071003558
3.78271003558
3.03771003558
4.39271003558
4.26971003558
3.54671003558
2.66171003558
3.83071003558
3.36071003558
4.50271003558
2.96571003558
3.00671003558
3.27271003558
3.79671003558
3.62471003558
3.88571003558
3.52371003558
3.39071003558
4.45071003558
3.79671003558
3.83871003558
3.80671003558
3.58471003558
3.96171003558
3.88871003558
3.13471003558
3.28071003558
3.31871003558
3.79671003558
3.38571003558
3.41171003558
3.79671003558
4.02771003558
3.28371003558
4.05671003558
2.38771003558
3.67671003558
3.97971003558
3.99671003558
4.06471003558
4.25171003558
3.68671003558
3.88271003558
4.24671003558
2.96871003558
3.84271003558
4.20371003558
3.93971003558
3.66871003558
3.08571003558
3.27671003558
3.88871003558
3.29971003558
3.36771003558
2.40071003558
2.85771003558
3.21871003558
4.40271003558
3.22571003558
2.90971003558
3.40671003558
3.33471003558
3.39471003558
3.88671003558
4.79671003558
3.39471003558
4.78271003558
3.59871003558
1002:
3.22371003558
2.82471003558
3.36971003558
3.54371003558
3.39871003558
3.64271003558
3.92371003558
2.44271003558
3.46871003558
3.46571003558
4.07371003558
3.52471003558
3.34271003558
3.06471003558
10020:
4.00571003558
4.17071003558
3.77971003558
4.31071003558
3.97171003558
3.75571003558
4.00271003558
4.38271003558
4.33171003558
4.06271003558
4.00471003558
5.01271003558
3.84371003558
4.12971003558
4.05071003558
4.00971003558
4.35671003558
3.66671003558
4.26471003558
3.66271003558
4.48971003558
3.44771003558
3.87371003558
3.80971003558
3.35971003558
2.55971003558
4.30871003558
10021:
2.04271003558
2.49471003558
2.55871003558
2.15571003558
10022:
2.20371003558
3.26071003558
2.96471003558
2.74571003558
3.29471003558
3.28771003558
2.57371003558
2.60571003558
10023:
4.04871003558
3.93071003558
3.96871003558
3.61571003558
4.87171003558
3.61971003558
3.36571003558
3.89071003558
3.54471003558
4.00571003558
4.47371003558
10024:
3.55371003558
4.02671003558
3.34471003558
3.87871003558
3.50071003558
3.13471003558
3.11071003558
3.24571003558
3.74571003558
3.76471003558
10025:
2.92571003558
10027:
4.64471003558
3.76971003558
3.67771003558
3.79371003558
3.09571003558
3.71171003558
3.59471003558
4.33271003558
3.42571003558
4.21871003558
3.86571003558
3.92171003558
4.12171003558
3.41771003558
3.97871003558
4.41071003558
3.70071003558
4.16171003558
4.30271003558
4.03771003558
3.60871003558
4.27471003558
3.90071003558
3.74171003558
4.35171003558
4.14371003558
4.47771003558
4.59771003558
4.76271003558
4.61471003558
4.66871003558
4.16571003558
3.37171003558
3.75271003558
4.15071003558
4.61671003558
4.81271003558
4.15071003558
4.20071003558
3.64371003558
4.29571003558
4.27071003558
5.16271003558
3.83071003558
3.74671003558
4.38271003558
4.18871003558
4.03271003558
4.47471003558
4.42971003558
3.98471003558
4.38671003558
3.77671003558
3.68771003558
3.57471003558
4.34571003558
3.62271003558
3.66871003558
4.49371003558
4.31471003558
3.73271003558
3.75471003558
3.38671003558
3.32371003558
4.62871003558
5.01071003558
3.35071003558
4.24071003558
3.39671003558
4.36171003558
4.28371003558
4.25071003558
4.08771003558
3.89671003558
4.63771003558
4.07671003558
4.37371003558
4.22271003558
3.03871003558
3.81371003558
4.84771003558
4.96771003558
3.08371003558
3.87271003558
4.15271003558
4.41171003558
3.91171003558
4.18271003558
10028:
2.87971003558
3.12471003558
2.80171003558
3.88171003558
4.02071003558
2.74171003558
4.18971003558
10029:
3.06671003558
3.97971003558
3.84971003558
2.86571003558
10031:
3.30871003558
2.66471003558
3.56371003558
2.50171003558
3.99671003558
2.91071003558
2.71271003558
2.34271003558
2.70571003558
10032:
3.15271003558
4.90171003558
4.26871003558
4.37871003558
4.16771003558
2.79371003558
3.59371003558
3.46071003558
3.90471003558
2.50571003558
3.25471003558
4.30771003558
4.80171003558
3.53971003558
4.20771003558
2.85871003558
3.76271003558
3.52671003558
3.53371003558
3.75171003558
3.27371003558
3.60171003558
3.37271003558
3.61171003558
3.64971003558
3.13171003558
3.53071003558
3.58571003558
4.27171003558
3.28571003558
3.66071003558
3.87671003558
4.20871003558
3.85471003558
3.46871003558
4.09171003558
3.37371003558
3.34771003558
3.49271003558
3.46371003558
3.59471003558
3.71671003558
3.47571003558
3.08271003558
3.45371003558
3.67871003558
4.04171003558
10033:
3.67271003558
3.34671003558
2.40871003558
3.42371003558
3.26871003558
2.68871003558
3.09471003558
2.85871003558
3.30071003558
2.92371003558
3.47571003558
3.21271003558
4.49471003558
3.73271003558
10034:
1.71171003558
2.40971003558
10035:
2.69771003558
4.74971003558
4.87271003558
4.36671003558
4.56771003558
4.47371003558
3.74171003558
3.63371003558
3.87471003558
3.52171003558
4.14471003558
3.91571003558
4.15371003558
4.29671003558
3.99371003558
4.02071003558
4.14171003558
4.26771003558
4.37271003558
5.34071003558
10036:
3.37671003558
3.47371003558
3.66171003558
3.42371003558
4.00171003558
3.70271003558
3.12871003558
3.84071003558
2.93771003558
3.19171003558
3.42071003558
3.74071003558
4.14071003558
4.03071003558
4.69771003558
4.12371003558
3.79271003558
4.09171003558
2.69071003558
3.17671003558
3.86671003558
3.47371003558
4.34371003558
4.08271003558
4.05971003558
4.32371003558
4.04171003558
3.92471003558
3.99171003558
3.10071003558
3.76271003558
3.20971003558
3.08871003558
3.59571003558
3.45571003558
3.59371003558
3.88271003558
3.83671003558
3.62271003558
4.00671003558
3.49371003558
3.97371003558
4.38071003558
4.15471003558
4.02371003558
4.20371003558
4.75671003558
4.69071003558
3.25971003558
4.18671003558
3.39671003558
3.90571003558
3.90671003558
3.15171003558
3.72971003558
4.45471003558
3.27571003558
5.00971003558
3.50271003558
4.17471003558
3.97371003558
4.51371003558
3.34471003558
4.56471003558
3.36871003558
4.62071003558
3.67571003558
4.22371003558
3.95071003558
4.10371003558
4.78871003558
4.12471003558
3.93971003558
3.41271003558
4.06871003558
4.35371003558
4.19371003558
3.37271003558
4.22371003558
4.23371003558
3.82371003558
3.51071003558
4.84671003558
4.16571003558
3.08571003558
3.93471003558
3.65971003558
4.01271003558
3.98271003558
3.72371003558
3.46471003558
4.35871003558
3.64171003558
4.26471003558
3.67171003558
3.38171003558
3.39571003558
4.03371003558
3.58171003558
4.28871003558
4.36471003558
3.92771003558
3.63271003558
4.58371003558
3.39971003558
3.08471003558
3.85371003558
3.31871003558
3.47471003558
3.97771003558
3.99271003558
3.48471003558
3.66571003558
4.07371003558
3.57171003558
3.80071003558
4.72371003558
3.50171003558
3.62671003558
4.05071003558
3.82771003558
3.93271003558
3.96271003558
3.69971003558
4.04771003558
3.50971003558
4.36671003558
4.64071003558
3.58271003558
3.43871003558
4.08271003558
3.27771003558
3.36671003558
4.22371003558
3.62771003558
3.35571003558
3.96671003558
3.93671003558
4.19071003558
3.17371003558
4.77871003558
4.25471003558
3.34371003558
3.77971003558
3.46371003558
4.72371003558
3.51671003558
3.96671003558
3.53371003558
3.35871003558
4.02371003558
4.06971003558
4.12671003558
3.56071003558
3.82371003558
3.49671003558
4.92971003558
3.62371003558
3.80071003558
4.52471003558
4.20171003558
3.51971003558
4.05571003558
4.17871003558
3.79771003558
3.79071003558
4.16971003558
4.48471003558
3.93871003558
3.61371003558
3.44171003558
3.63171003558
4.27771003558
3.53871003558
4.05571003558
3.97371003558
3.65471003558
4.22371003558
4.16571003558
4.51571003558
3.81471003558
4.50871003558
3.34071003558
3.93671003558
4.81871003558
3.70071003558
3.77171003558
3.76171003558
4.10871003558
3.82971003558
4.00471003558
3.36671003558
4.02371003558
4.84371003558
4.20071003558
3.05671003558
3.81371003558
4.01471003558
3.23371003558
3.90171003558
3.93371003558
3.88371003558
3.60771003558
3.87271003558
2.97371003558
4.93771003558
3.93371003558
4.09071003558
3.40271003558
3.69071003558
3.83871003558
3.54171003558
4.48471003558
3.58371003558
3.56171003558
10037:
3.94971003558
3.08871003558
3.26671003558
3.79871003558
3.68471003558
3.70771003558
3.28671003558
2.80871003558
3.14771003558
3.71071003558
3.09071003558
3.17271003558
3.28171003558
3.32771003558
10038:
4.05371003558
3.22971003558
3.04271003558
3.21471003558
3.03271003558
3.51171003558
3.51371003558
2.83071003558
10039:
1.57171003558
1004:
2.27071003558
2.32371003558
2.66971003558
2.66371003558
3.17871003558
2.89271003558
2.99271003558
3.61971003558
2.16371003558
2.98971003558
3.12471003558
3.61571003558
3.26271003558
2.93571003558
2.54471003558
2.16371003558
2.73771003558
3.03271003558
2.64971003558
2.86171003558
3.15471003558
2.67571003558
2.53471003558
1.54971003558
2.50571003558
2.14671003558
2.81971003558
2.92471003558
2.35671003558
2.93971003558
2.95671003558
10040:
3.06871003558
2.87671003558
3.56271003558
10041:
3.42871003558
2.89671003558
3.04871003558
2.68271003558
3.04471003558
3.09771003558
3.66371003558
2.99371003558
3.30571003558
2.72371003558
2.41371003558
3.33871003558
3.80971003558
2.66671003558
3.14071003558
3.38671003558
3.09971003558
2.59371003558
2.87471003558
2.36371003558
2.84271003558
3.11671003558
2.65471003558
2.89071003558
3.28571003558
2.34971003558
3.19371003558
2.71671003558
3.22671003558
2.75371003558
3.27471003558
10042:
4.76771003558
4.26471003558
4.75771003558
4.38771003558
4.58771003558
5.03971003558
5.23271003558
4.20971003558
5.24771003558
4.39671003558
4.81271003558
4.39971003558
4.84071003558
4.57371003558
4.70371003558
5.05971003558
4.26371003558
5.02771003558
4.87771003558
4.76071003558
4.43571003558
5.07771003558
3.76371003558
4.59571003558
4.73671003558
5.26971003558
4.87571003558
3.44571003558
4.88771003558
4.78271003558
4.67871003558
4.87371003558
4.70871003558
5.22371003558
4.72371003558
5.35171003558
4.54271003558
4.71871003558
4.32371003558
4.03871003558
4.80371003558
4.50471003558
4.36171003558
4.24371003558
4.48171003558
5.12971003558
4.71071003558
4.19171003558
4.54771003558
4.17871003558
4.58671003558
5.04271003558
5.25971003558
4.09771003558
5.41171003558
5.16071003558
3.89971003558
4.80171003558
4.07071003558
4.49571003558
4.71071003558
4.59071003558
4.72871003558
4.58371003558
3.86771003558
4.02171003558
4.43771003558
5.01971003558
4.47071003558
4.06371003558
4.33171003558
4.17071003558
4.72171003558
4.37571003558
4.21471003558
5.24071003558
5.05971003558
4.59471003558
4.64371003558
4.89971003558
4.13871003558
4.59571003558
4.86871003558
4.63471003558
5.13771003558
4.34071003558
4.48271003558
4.87971003558
4.02671003558
5.07871003558
4.37071003558
4.78471003558
5.69571003558
4.53971003558
4.59971003558
5.00371003558
4.62071003558
4.71871003558
4.60371003558
4.41071003558
4.95771003558
5.02471003558
4.41971003558
5.41771003558
4.89971003558
4.51471003558
4.62171003558
4.65971003558
5.30971003558
4.60571003558
5.06371003558
4.69871003558
4.08071003558
4.99871003558
4.16171003558
4.53971003558
4.72571003558
4.09971003558
4.76671003558
5.28471003558
3.96171003558
5.37571003558
4.68771003558
5.39971003558
4.98571003558
5.67871003558
4.03571003558
4.41771003558
4.76771003558
4.25971003558
4.35471003558
4.76371003558
4.62871003558
2.79971003558
4.54571003558
4.58971003558
5.36171003558
5.63771003558
4.26771003558
5.26671003558
4.53571003558
5.45571003558
4.59271003558
4.50571003558
4.64671003558
4.62371003558
4.79971003558
4.04171003558
4.24271003558
5.05171003558
4.33771003558
4.83371003558
5.60771003558
4.68271003558
4.95971003558
4.53371003558
4.47371003558
4.01671003558
4.10971003558
4.89971003558
3.71171003558
5.16371003558
4.69171003558
4.73571003558
4.46271003558
5.17771003558
4.42971003558
4.37271003558
4.52071003558
4.80471003558
5.09971003558
5.10271003558
4.22871003558
4.38971003558
5.07071003558
4.40971003558
4.81471003558
5.28771003558
5.55371003558
4.78571003558
4.25171003558
4.66871003558
5.17771003558
4.42771003558
4.73871003558
5.30071003558
4.33371003558
3.89971003558
4.50971003558
5.07371003558
4.30171003558
4.63271003558
5.08971003558
4.28671003558
5.08571003558
5.23971003558
5.11371003558
4.51971003558
4.70771003558
4.84371003558
4.75671003558
4.96771003558
4.77471003558
4.53471003558
4.87071003558
3.29971003558
4.89971003558
4.71671003558
4.80871003558
4.43371003558
4.35271003558
4.46671003558
5.24571003558
5.18371003558
5.32171003558
5.05271003558
4.98571003558
4.89971003558
4.63171003558
4.92471003558
4.50871003558
4.93671003558
5.17971003558
4.90771003558
4.69271003558
4.87371003558
5.07271003558
4.36271003558
4.62671003558
4.59571003558
4.71471003558
4.73871003558
4.63771003558
4.48671003558
5.26771003558
4.61571003558
5.06871003558
4.38871003558
4.86271003558
4.78071003558
4.33171003558
5.39071003558
4.19771003558
5.01471003558
4.90571003558
4.96771003558
5.45871003558
4.98271003558
4.62671003558
4.84071003558
4.09971003558
4.67271003558
5.51871003558
4.56671003558
4.56671003558
4.53071003558
4.20371003558
4.94771003558
4.83171003558
4.13171003558
4.14771003558
4.07071003558
4.67871003558
5.29971003558
3.92771003558
4.52771003558
4.55271003558
4.95571003558
4.39371003558
4.42471003558
4.66371003558
5.14071003558
4.55971003558
4.31171003558
4.06971003558
4.24671003558
4.61371003558
4.91871003558
4.71571003558
4.72071003558
4.64071003558
4.37171003558
4.98271003558
4.44471003558
4.86671003558
4.46871003558
4.13371003558
5.09971003558
4.39071003558
4.84971003558
4.85671003558
4.24871003558
4.91571003558
4.33171003558
4.98871003558
4.25271003558
4.49871003558
4.73871003558
4.44971003558
4.52871003558
4.87471003558
4.73271003558
4.78171003558
4.70071003558
4.02771003558
4.68971003558
4.61171003558
4.70071003558
4.86571003558
4.89471003558
4.66871003558
4.40171003558
4.85071003558
4.58071003558
4.61771003558
5.08571003558
4.38571003558
5.12171003558
5.05471003558
4.42071003558
4.90971003558
4.35671003558
5.06971003558
4.86571003558
5.02571003558
5.06971003558
5.08171003558
4.75771003558
5.19971003558
4.64971003558
5.10471003558
4.71771003558
4.11871003558
5.00671003558
4.40371003558
4.78571003558
4.84871003558
5.41871003558
4.41971003558
5.15471003558
5.11971003558
4.87071003558
5.11171003558
5.71471003558
4.30671003558
4.97971003558
4.94071003558
5.34971003558
4.37671003558
4.91271003558
5.32271003558
4.39671003558
5.02171003558
4.48071003558
4.10271003558
4.75871003558
4.82671003558
5.02071003558
4.50571003558
4.77871003558
4.39971003558
4.38671003558
4.58271003558
4.57271003558
4.67271003558
4.56671003558
4.17771003558
4.34371003558
5.39971003558
4.33671003558
5.49571003558
4.64271003558
4.59171003558
4.52671003558
4.58771003558
5.41771003558
4.01871003558
3.83371003558
4.81871003558
4.81671003558
4.66671003558
4.74071003558
4.11471003558
4.83271003558
4.39971003558
5.09771003558
4.60371003558
4.47071003558
4.22371003558
4.68371003558
4.70971003558
4.22271003558
4.68771003558
4.07571003558
4.21271003558
5.43671003558
4.71271003558
3.99271003558
4.58671003558
4.88171003558
4.56671003558
4.53271003558
4.38371003558
4.47371003558
4.63071003558
4.68671003558
4.89971003558
4.58071003558
4.00171003558
4.99971003558
5.15571003558
4.20471003558
4.83071003558
4.59371003558
4.24971003558
4.81571003558
4.22271003558
5.29971003558
4.83471003558
3.98271003558
5.61371003558
4.68671003558
4.83271003558
5.28271003558
4.71571003558
4.19671003558
5.00471003558
5.26771003558
4.87971003558
4.32371003558
4.39171003558
5.10571003558
4.16471003558
4.73071003558
4.80171003558
4.03871003558
4.54671003558
3.39571003558
4.39971003558
4.58071003558
4.39171003558
5.17471003558
4.70371003558
4.69371003558
5.06671003558
4.78371003558
4.87071003558
4.52471003558
4.49371003558
4.18371003558
4.45271003558
5.13871003558
3.83871003558
5.04271003558
5.23971003558
5.13071003558
4.26771003558
4.84271003558
4.52471003558
4.97971003558
4.57071003558
4.28871003558
4.31871003558
4.20171003558
5.69971003558
4.69071003558
5.00871003558
3.74271003558
4.87871003558
5.42071003558
4.78071003558
4.62671003558
4.47271003558
5.20771003558
5.44471003558
5.02571003558
4.87871003558
5.29771003558
4.30971003558
4.04671003558
4.76971003558
4.83271003558
4.49571003558
4.31571003558
5.53971003558
4.25171003558
3.84471003558
4.54971003558
4.66271003558
4.34671003558
4.70671003558
4.41471003558
4.12671003558
4.71271003558
4.65471003558
4.96071003558
4.51871003558
4.75571003558
4.70171003558
4.30971003558
3.78671003558
3.98071003558
4.61371003558
4.20571003558
3.62571003558
5.22971003558
4.84471003558
4.98671003558
4.02371003558
4.75071003558
4.65971003558
5.02571003558
4.62971003558
4.52971003558
4.99771003558
5.05071003558
5.46971003558
5.02471003558
4.37671003558
4.42871003558
4.98771003558
4.34371003558
4.25171003558
4.55671003558
5.46671003558
4.72871003558
4.61371003558
4.00571003558
3.77771003558
5.35371003558
4.81071003558
4.21971003558
4.38571003558
4.93971003558
5.23271003558
4.45271003558
5.45871003558
5.44471003558
5.06271003558
4.64971003558
4.22371003558
5.08771003558
4.93371003558
4.57971003558
5.14771003558
5.43571003558
4.14371003558
5.42871003558
4.87471003558
4.68271003558
3.83971003558
3.64071003558
5.18571003558
3.02471003558
4.51671003558
4.99271003558
4.46871003558
4.39471003558
4.08871003558
4.89971003558
4.37371003558
4.29771003558
4.94771003558
4.62071003558
4.96471003558
5.11371003558
4.53371003558
4.17871003558
4.69071003558
4.17171003558
4.38971003558
4.12171003558
4.09071003558
5.15971003558
4.25871003558
4.91871003558
4.65871003558
3.89971003558
4.68271003558
4.65571003558
5.21071003558
3.95071003558
4.46071003558
4.20071003558
4.24671003558
4.62671003558
4.47871003558
4.85271003558
5.18571003558
5.08771003558
4.67771003558
4.70771003558
4.29271003558
4.41771003558
4.03671003558
4.61971003558
4.83171003558
4.88671003558
4.47071003558
4.19271003558
4.70671003558
4.92471003558
4.66971003558
4.18671003558
3.87171003558
4.78871003558
4.50871003558
4.54971003558
5.25671003558
4.12171003558
4.47971003558
4.17771003558
5.18971003558
4.78871003558
4.31671003558
4.44471003558
4.39971003558
5.44171003558
4.41471003558
4.26471003558
4.14371003558
4.61471003558
4.67071003558
4.59471003558
4.21771003558
4.70571003558
4.01371003558
3.89471003558
4.80571003558
4.49971003558
4.73771003558
4.86371003558
4.75471003558
4.43471003558
4.62371003558
4.21871003558
5.46371003558
4.70871003558
4.89971003558
5.04371003558
4.89071003558
4.18571003558
4.84971003558
4.79171003558
5.00371003558
4.96371003558
5.43771003558
4.49471003558
4.42471003558
4.49671003558
4.43771003558
4.65771003558
4.69971003558
4.77571003558
5.11271003558
4.94271003558
4.55871003558
4.85771003558
4.50471003558
4.79571003558
3.70471003558
5.04671003558
3.93971003558
4.65771003558
4.94271003558
5.11871003558
4.58471003558
4.19971003558
4.39871003558
4.74871003558
4.64671003558
4.37671003558
5.01371003558
5.19771003558
5.44871003558
4.84171003558
4.10471003558
4.75671003558
4.19271003558
4.38071003558
5.33571003558
4.45471003558
4.93971003558
4.14071003558
4.65271003558
4.45671003558
4.50871003558
5.25871003558
4.45671003558
4.42771003558
4.28571003558
5.18271003558
4.67271003558
4.53071003558
4.61771003558
4.82671003558
4.84371003558
5.02271003558
4.67171003558
4.64471003558
4.78171003558
3.98671003558
4.52371003558
4.84471003558
4.80971003558
5.01971003558
4.56671003558
4.48671003558
4.26471003558
4.54271003558
4.57771003558
4.21971003558
4.75171003558
5.06471003558
4.81671003558
5.10871003558
4.89471003558
4.60771003558
4.87271003558
4.58671003558
4.20571003558
5.11871003558
5.28571003558
4.72471003558
4.03171003558
4.34271003558
4.78771003558
3.56671003558
4.11571003558
4.22771003558
4.72671003558
4.67471003558
5.21571003558
4.31371003558
5.15871003558
4.69571003558
4.48571003558
4.57571003558
4.39971003558
3.60271003558
4.64471003558
4.67071003558
4.04971003558
4.95471003558
4.25471003558
4.64071003558
5.08771003558
4.93671003558
4.92171003558
5.31671003558
4.30971003558
5.19571003558
5.17871003558
4.53571003558
4.81071003558
4.79771003558
10043:
4.29871003558
4.20671003558
4.06071003558
3.64371003558
4.05671003558
4.00971003558
3.70971003558
4.21571003558
4.78971003558
4.01071003558
4.30671003558
4.61571003558
4.05471003558
4.47971003558
4.05471003558
3.86071003558
4.58271003558
4.10771003558
3.89671003558
3.79371003558
4.52971003558
4.54771003558
4.20471003558
4.43571003558
3.77871003558
4.26071003558
4.20971003558
4.61971003558
4.52571003558
3.34771003558
3.98671003558
4.23271003558
4.04671003558
4.33771003558
4.30271003558
4.03971003558
4.32571003558
4.68671003558
4.64271003558
4.09871003558
4.39871003558
3.65371003558
2.90671003558
4.03271003558
3.90871003558
4.29871003558
3.95371003558
4.54271003558
4.10471003558
4.49871003558
3.67171003558
4.19371003558
4.03971003558
4.18971003558
4.26971003558
3.77671003558
3.65471003558
3.77971003558
4.49871003558
4.86371003558
4.72171003558
4.45871003558
3.67371003558
3.98771003558
10044:
4.12871003558
3.72471003558
3.29271003558
3.77771003558
3.87971003558
4.48271003558
3.70071003558
3.86771003558
3.21071003558
3.59271003558
3.61771003558
2.79871003558
3.21271003558
4.11771003558
3.79971003558
4.55071003558
4.15071003558
2.96271003558
4.71171003558
4.10471003558
3.56571003558
4.06471003558
3.64571003558
4.12771003558
3.41271003558
3.52771003558
3.13371003558
3.78571003558
3.96271003558
4.04571003558
3.44771003558
4.06771003558
4.42271003558
3.37671003558
4.03171003558
3.55971003558
3.83771003558
3.72371003558
3.57771003558
3.43171003558
3.68271003558
4.78671003558
3.51371003558
2.97171003558
4.39771003558
3.47371003558
3.72371003558
3.12371003558
3.80571003558
3.73371003558
3.57771003558
3.39571003558
3.40471003558
3.74871003558
3.46571003558
3.91171003558
3.77171003558
3.68671003558
3.46671003558
3.54371003558
4.16771003558
3.79071003558
4.22171003558
3.62371003558
10045:
3.57671003558
10046:
2.69771003558
2.40571003558
2.08671003558
10047:
3.98271003558
4.54271003558
4.10471003558
4.28771003558
4.51571003558
3.37071003558
4.24071003558
3.96071003558
10048:
2.93871003558
3.35671003558
3.13671003558
2.91271003558
3.55071003558
3.99271003558
3.32471003558
10049:
2.16171003558
1.74771003558
1.94871003558
1005:
3.20371003558
3.07271003558
2.81871003558
2.57771003558
3.10171003558
3.35971003558
3.10171003558
2.65371003558
3.43471003558
3.05971003558
3.00571003558
2.68471003558
2.78571003558
10050:
2.76471003558
2.62671003558
3.15871003558
2.66471003558
3.26271003558
2.25971003558
10051:
3.11171003558
3.01171003558
2.83171003558
3.81171003558
3.19871003558
3.37971003558
3.09071003558
4.14471003558
3.51471003558
1.91971003558
3.29271003558
4.16971003558
3.45571003558
3.79071003558
3.50971003558
4.32771003558
3.24371003558
3.12971003558
3.43271003558
4.31471003558
3.14971003558
10052:
3.30471003558
3.30671003558
3.44971003558
2.78571003558
3.10871003558
10053:
3.59671003558
3.90371003558
3.38771003558
3.40571003558
4.27071003558
3.77571003558
3.68671003558
4.21471003558
3.94971003558
5.04471003558
4.20371003558
3.71871003558
4.02471003558
3.98171003558
4.37971003558
3.54371003558
3.82571003558
3.17871003558
4.00471003558
3.43071003558
3.32471003558
3.71671003558
4.11971003558
4.24171003558
3.69171003558
4.03271003558
3.73371003558
4.54071003558
4.62571003558
4.04471003558
3.37171003558
3.21571003558
4.97871003558
3.54071003558
3.74171003558
4.10371003558
4.04471003558
3.83171003558
3.72471003558
3.92871003558
3.04771003558
3.82571003558
3.85771003558
4.47471003558
4.04471003558
3.60871003558
4.43671003558
3.62571003558
4.20371003558
4.53271003558
3.36971003558
3.54871003558
4.38671003558
3.87671003558
4.09171003558
3.88771003558
3.52971003558
3.94271003558
3.48271003558
3.43271003558
4.59371003558
3.53371003558
3.51171003558
3.92371003558
4.30371003558
3.62571003558
4.13871003558
3.42871003558
10054:
2.95371003558
2.95071003558
2.75471003558
2.79371003558
2.46271003558
2.92771003558
1.87671003558
3.07871003558
3.18171003558
3.55371003558
2.28671003558
2.92271003558
10055:
3.93871003558
3.50471003558
3.65571003558
3.88271003558
3.85371003558
3.69271003558
4.08771003558
3.60871003558
3.46471003558
3.16271003558
3.97271003558
2.82271003558
3.25471003558
3.84371003558
3.11871003558
2.40171003558
3.04071003558
3.71271003558
3.74171003558
2.93671003558
3.61671003558
3.16471003558
3.50471003558
3.41171003558
3.67171003558
3.70771003558
3.26571003558
3.50871003558
2.99171003558
4.03571003558
3.63571003558
3.58771003558
3.19271003558
3.52171003558
3.50871003558
3.16971003558
3.62171003558
3.40771003558
4.03771003558
3.64071003558
3.79071003558
2.68771003558
3.31971003558
3.75071003558
2.44271003558
3.81571003558
3.63571003558
3.24971003558
2.63171003558
2.97771003558
3.13271003558
3.64671003558
3.29071003558
2.70871003558
3.25471003558
3.47471003558
3.64771003558
2.71171003558
3.37371003558
3.68371003558
3.27971003558
2.61671003558
3.75471003558
3.77371003558
3.31271003558
3.28071003558
3.31171003558
2.99371003558
3.31271003558
3.60871003558
3.05171003558
2.86071003558
3.61371003558
3.89471003558
2.72271003558
3.05571003558
3.33671003558
3.23071003558
3.47971003558
10056:
1.68771003558
3.27871003558
3.51671003558
3.83871003558
2.90471003558
3.49971003558
3.59971003558
10040:
3.06871003558
2.87671003558
3.56271003558
10045:
3.57671003558
10046:
2.69771003558
2.40571003558
2.08671003558
0.90
