1001:
3.4185
3.5775
3.7505
3.324
3.8875
3.813
3.676
3.655
3.141
3.6495
3.623
3.8705
3.241
3.6685
3.5085
3.462
3.8115
3.7115
3.2705
3.4195
3.4185
3.6535
3.465
3.189
3.577
3.2435
3.6115
3.64
3.805
3.855
3.6425
4.1685
3.2885
3.5405
3.46
3.556
3.847
3.1685
3.502
3.6705
3.7915
3.3165
3.625
3.8095
3.855
3.727
3.5225
3.3305
3.4075
3.845
3.3935
2.906
3.0685
3.585
3.8685
3.8915
3.593
3.4575
3.5475
3.386
3.514
3.3685
3.2715
3.245
3.856
3.383
3.184
3.304
3.805
3.5325
3.2455
3.4515
3.574
3.3115
2.9185
3.675
3.116
3.0305
3.628
3.5715
3.9185
3.7905
3.0705
3.224
3.559
3.4065
3.486
3.903
3.4865
3.2935
3.835
3.5285
3.49
3.7055
3.363
3.1285
3.366
4.1685
3.4565
3.7935
3.551
3.6685
3.336
3.325
3.3885
3.528
3.6435
3.772
3.6375
3.13
3.329
3.4855
3.502
3.308
3.502
3.002
3.315
3.906
3.69
3.3365
3.454
3.544
3.5915
3.5435
3.42
3.44
3.335
3.6095
3.6295
3.4715
3.535
3.674
3.613
3.4865
10010:
2.953
2.8495
2.87
3.2875
3.0715
2.8785
3.0085
2.889
2.7185
3.0575
2.8525
2.7465
2.916
2.664
3.2445
2.851
2.762
3.1285
2.4345
2.9335
2.7535
2.677
2.9055
10011:
4.078
3.898
10012:
3.5075
3.968
3.4905
3.505
3.8025
3.8425
3.194
3.2035
3.462
3.629
3.831
3.4765
3.5255
10013:
3.5995
3.362
3.504
3.6435
3.4945
3.5575
3.3195
3.623
3.4835
3.7295
3.18
3.8895
3.6335
3.5185
3.353
3.45
3.2035
3.387
3.4425
3.198
3.3345
3.2645
3.426
3.7335
3.6835
3.363
3.452
3.119
3.353
3.529
3.2615
3.3855
3.302
3.7255
3.4285
3.3
3.481
3.819
3.832
3.206
3.904
3.456
3.6695
3.741
3.4215
3.199
3.4465
3.5485
3.3895
3.616
3.331
3.3685
3.608
3.6815
3.406
3.0735
3.7375
10014:
3.1825
3.649
3.0735
3.7415
3.3825
10015:
3.728
3.472
3.28
3.6105
3.809
3.5805
3.8675
3.7565
3.816
3.686
3.817
3.655
3.5325
3.8895
3.8895
3.604
3.673
3.9105
3.572
3.866
4.4155
3.8985
4.149
3.7565
3.423
3.488
4.019
3.6775
10016:
2.6515
2.75
2.943
3.0775
3.615
10017:
3.154
3.4335
3.446
10018:
4.1425
3.982
3.245
3.4145
3.6125
3.7825
3.712
3.486
3.095
3.9335
3.552
3.8755
3.409
3.787
3.428
3.809
3.683
3.709
3.426
3.709
4.083
3.409
3.932
3.991
3.593
3.917
3.8375
3.754
3.926
3.947
10019:
3.5645
2.6515
3.7215
3.349
4.0265
3.965
3.6035
3.142
3.7455
3.621
4.0815
3.313
3.3315
3.4505
3.7285
3.636
3.773
3.666
3.5255
4.0555
3.7285
3.7415
3.7335
3.6225
3.811
3.659
3.385
3.4705
3.562
3.7285
3.7055
3.2205
3.7285
3.8475
3.464
3.8585
3.024
3.7945
3.8205
3.9105
3.844
3.956
3.8995
3.7715
3.9535
3.3075
3.7435
3.932
3.5785
3.613
3.412
3.5115
3.825
3.48
2.2205
3.0305
3.1685
3.4395
4.0315
3.4915
3.3185
3.5335
4.173
3.5275
3.862
4.2285
3.512
4.19
3.6295
1002:
3.5995
3.17
3.503
3.6095
3.2395
3.6395
3.933
3.0395
3.593
3.665
3.922
3.5465
3.4895
3.3505
10020:
3.877
3.915
3.772
3.978
3.8015
3.6935
3.7625
3.9935
3.929
3.847
3.818
4.322
3.929
3.651
3.845
3.8205
3.994
3.5815
3.948
3.651
4.0605
3.5395
3.7525
3.7625
3.4955
3.0955
3.97
10021:
3.023
3.2045
3.2835
2.7285
10022:
2.942
3.5075
3.2825
3.2575
3.6015
3.5115
3.064
3.08
10023:
3.8095
3.7835
3.805
3.6285
4.2565
3.6305
3.5495
3.766
3.593
3.8235
4.0575
10038:
4.0175
3.361
3.452
3.3535
3.447
3.6865
3.6875
3.346
10039:
2.588
1004:
2.9665
2.792
3.3105
3.1205
3.303
3.2835
3.0105
3.5955
2.8675
3.2605
3.344
3.4605
3.465
3.5105
3.0855
2.8675
3.2015
3.3295
3.138
3.244
3.282
3.5105
3.5105
2.5605
3.038
2.8175
3.2295
3.248
3.087
3.2805
3.0105
10040:
3.2875
3.4605
3.83
10041:
3.9065
3.279
3.4595
3.175
3.353
3.3175
3.7035
3.3275
2.323
3.1925
2.073
3.5035
3.7215
2.973
3.424
3.473
3.3805
3.1275
3.268
3.0245
3.252
3.4405
3.266
3.3595
3.4995
3.0005
3.4275
3.0235
3.391
3.0465
3.468
10042:
4.178
3.8145
4.1285
3.9045
4.101
4.619
4.4105
4.0325
4.418
3.9925
4.2005
3.994
4.2975
4.081
4.146
4.278
3.756
4.494
4.3905
4.1745
4.744
4.333
3.676
4.092
4.1625
4.429
4.363
3.573
4.238
4.1775
4.2645
4.231
4.1355
4.3065
4.244
4.47
4.144
4.494
4.04
3.804
4.196
4.0395
4.027
3.9445
4.494
4.359
4.1495
3.915
4.145
3.8835
3.9785
4.3155
4.424
3.244
4.598
4.3745
3.7895
4.207
3.8295
4.042
4.128
4.22
4.1585
4.1455
3.699
3.805
4.013
4.6105
4.1935
3.9525
3.96
4.168
4.155
3.982
3.744
4.4145
4.324
4.0915
4.116
4.244
3.8635
4.444
4.185
4.117
4.363
3.9715
4.428
4.234
3.8075
4.4215
3.9795
4.1865
4.7215
4.064
4.094
4.044
3.9595
4.1485
4.148
3.9995
4.281
4.3065
3.8275
4.519
4.271
4.0515
4.105
4.124
4.5065
4.2105
4.411
4.1435
4.194
4.2935
4.058
4.1385
4.1545
3.919
4.1775
4.4485
3.8745
4.4335
4.079
4.494
4.244
4.61
3.812
3.9785
4.178
3.917
3.9715
4.1605
4.1085
3.194
4.067
4.134
4.4795
4.613
3.9335
4.744
4.062
4.522
4.0905
3.794
4.1955
4.044
4.194
3.7095
3.9425
4.293
3.98
4.211
4.598
4.1355
4.274
3.7995
4.011
3.739
3.861
4.244
3.7985
4.376
4.14
4.1925
3.869
4.349
4.009
3.9805
4.072
4.1325
4.344
4.3455
3.9085
4.153
4.3295
3.999
4.252
4.438
4.571
4.007
4.1235
4.744
4.6605
3.998
4.1635
4.4425
3.961
3.7855
4.049
4.331
3.9675
4.1105
4.28
3.869
4.337
4.4765
4.351
4.1005
4.146
4.125
4.244
4.3295
4.1815
4.244
4.2295
3.444
4.244
4.1835
4.193
4.023
3.9505
4.0275
4.417
4.386
4.455
4.3205
4.619
4.244
4.11
4.2565
4.1065
4.2625
4.384
4.322
4.1725
4.231
4.3305
3.9755
4.494
4.1575
4.1515
4.1635
4.339
4.744
4.4235
4.0895
4.744
3.948
4.393
4.1355
3.96
4.4965
4.4105
4.3015
4.247
4.633
4.5235
4.295
4.1075
4.2145
3.7685
4.1665
4.5205
4.0775
3.9525
4.601
3.9705
4.268
4.2595
3.86
4.094
4.244
4.007
4.438
3.734
4.058
4.4225
4.284
4.1725
4.0065
4.129
4.3645
4.091
3.962
4.544
3.9175
4.144
4.1095
4.4525
4.271
4.1145
3.9705
4.2855
4.0165
4.2275
4.0285
4.067
4.344
4.0025
4.219
4.2225
3.869
4.252
3.96
3.944
3.899
4.0435
4.2785
4.031
4.0585
4.2755
4.1725
4.185
4.188
3.837
4.139
4.1
4.391
4.241
4.013
4.1405
4.1875
4.744
4.22
4.103
4.4365
4.244
4.355
4.3215
4.0045
4.249
4.0295
4.329
4.2585
4.3785
4.285
4.335
4.173
4.394
4.119
4.3465
4.756
3.8145
4.2975
3.996
4.278
4.387
4.582
4.004
4.3715
4.354
4.475
4.3505
4.68
3.9475
4.2395
4.2635
4.4315
3.9825
4.3715
4.4555
3.9925
4.305
4.1955
3.8995
4.2095
4.3595
4.3045
4.014
4.244
3.9825
3.9875
4.1085
4.18
4.1305
4.013
3.8775
3.994
4.494
4.5775
4.542
4.1155
4.09
4.023
4.2145
4.503
3.8035
3.7165
4.2035
4.256
4.1275
4.1645
3.8385
4.1055
4.006
4.32
4.1605
4.0295
3.906
4.136
4.149
3.999
4.138
3.844
3.9445
4.5125
4.1505
3.9795
4.0875
4.107
4.0775
4.0605
3.9165
3.9885
4.1095
4.14
4.244
4.0845
3.744
4.294
4.372
3.906
4.1915
4.098
4.744
4.202
3.9055
4.444
4.146
3.823
4.601
4.1375
4.2225
4.4355
4.183
4.004
4.3275
4.487
4.369
4.101
4.0105
4.347
3.883
4.1595
4.5775
3.818
4.0675
3.492
3.994
4.744
4.744
4.3815
3.9655
4.398
4.3275
4.33
4.2185
4.443
3.949
3.8355
4.179
4.2305
4.042
3.8905
4.744
4.001
4.756
4.1345
4.262
3.9675
4.1105
4.0015
3.8575
4.1505
4.106
4.2745
4.0535
4.172
4.145
3.949
4.098
3.8995
4.101
3.897
3.908
4.409
4.2165
4.2875
3.8575
4.1695
4.124
4.307
4.184
4.059
4.293
4.3195
4.529
4.6915
3.956
4.0895
4.288
3.966
3.92
4.0725
4.5275
4.256
4.101
3.7185
3.747
4.471
4.2955
3.904
4.176
4.264
4.4315
4.0205
4.5235
4.5165
4.3255
4.119
3.919
10045:
3.611
10046:
3.2875
2.675
2.9855
0.85
