.........
----------------------------------------------------------------------
Ran 9 tests in 0.001s

OK
Name             Stmts   Miss Branch BrPart  Cover   Missing
------------------------------------------------------------
Netflix.py          48      3     10      1    93%   28-31, 24->28
TestNetflix.py      60      0      6      0   100%
------------------------------------------------------------
TOTAL              108      3     16      1    97%
